{
	"count": 40,
	"totalPage": 2,
	"currPage": 1,
	"next": "http://localhost/api/diagnostics/event/?page=2",
	"previous": "string",
	"results": [
		{
			"id": "3fa85f64-5717-4562-b3fc-2c963f66afa6",
			"location": "LD-10F0",
			"equipmentName": "Chiller",
			"equipmentModel": "HTD374",
			"componentName": "Motor",
			"componentModel": "itr44t",
			"installLocation": "inboard",
			"anomalyPattern": 3,
			"anomalyCause": 4,
			"eventType": "normal",
			"processStatus": "Pending",
			"startTime": "1674181800",
			"endTime": 1674181822,
			"lastEditTime": 1674190800,
			"lastEditorUserId": 20,
			"modelId": "3fa85f64-5717-4562-b3fc-2c963f66afa6",
			"sensorDataId": "3fa85f64-5717-4562-b3fc-2c963f66afa6",
			"lastEditUserName": "Alan_Hu"
		},
		{
			"id": "3fa85f64-5717-4562-b3fc-2c963f66afa7",
			"location": "LD-10F1",
			"equipmentName": "Chiller",
			"equipmentModel": "HTD374",
			"componentName": "Motor",
			"componentModel": "itr44t",
			"installLocation": "inboard",
			"anomalyPattern": 3,
			"anomalyCause": 4,
			"eventType": "normal",
			"processStatus": "Pending",
			"startTime": "1674181800",
			"endTime": 1674181822,
			"lastEditTime": 1674190800,
			"lastEditorUserId": 20,
			"modelId": "3fa85f64-5717-4562-b3fc-2c963f66afa6",
			"sensorDataId": "3fa85f64-5717-4562-b3fc-2c963f66afa6",
			"lastEditUserName": "Alan_Hu"
		},
		{
			"id": "3fa85f64-5717-4562-b3fc-2c963f66afa8",
			"location": "LD-10F2",
			"equipmentName": "Chiller",
			"equipmentModel": "HTD374",
			"componentName": "Motor",
			"componentModel": "itr44t",
			"installLocation": "inboard",
			"anomalyPattern": 3,
			"anomalyCause": 4,
			"eventType": "normal",
			"processStatus": "Pending",
			"startTime": "1674181800",
			"endTime": 1674181822,
			"lastEditTime": 1674190800,
			"lastEditorUserId": 20,
			"modelId": "3fa85f64-5717-4562-b3fc-2c963f66afa6",
			"sensorDataId": "3fa85f64-5717-4562-b3fc-2c963f66afa6",
			"lastEditUserName": "Alan_Hu"
		},
		{
			"id": "3fa85f64-5717-4562-b3fc-2c963f66afa9",
			"location": "LD-10F3",
			"equipmentName": "Chiller",
			"equipmentModel": "HTD374",
			"componentName": "Motor",
			"componentModel": "itr44t",
			"installLocation": "inboard",
			"anomalyPattern": 3,
			"anomalyCause": 4,
			"eventType": "normal",
			"processStatus": "Pending",
			"startTime": "1674181800",
			"endTime": 1674181822,
			"lastEditTime": 1674190800,
			"lastEditorUserId": 20,
			"modelId": "3fa85f64-5717-4562-b3fc-2c963f66afa6",
			"sensorDataId": "3fa85f64-5717-4562-b3fc-2c963f66afa6",
			"lastEditUserName": "Alan_Hu"
		}
	]
}