{
	"count": 50,
	"totalPage": 10,
	"currPage": 1,
	"next": "http://localhost/api/device/sensor/?page=2",
	"previous": null,
	"results": [
		{
			"id": "3fa85f64-5717-4562-b3fc-2c963f66afa6",
			"name": "string",
			"interval": "string",
			"installLocation": "Inboard",
			"xAxis": "Vertical",
			"yAxis": "Horizontal",
			"zAxis": "Axial",
			"modelStatus": "Active",
			"battery": 0,
			"connected": true,
			"lastOnlineTime": "string",
			"getImageApi": "string",
			"imageDelete": true,
			"componentId": "3fa85f64-5717-4562-b3fc-2c963f66afa6",
			"componentName": "AAA",
			"componentModel": "string",
			"equipmentId": "3fa85f64-5717-4562-b3fc-2c963f66afa6",
			"equipmentName": "string",
			"equipmentModel": "string",
			"locationId": "3fa85f64-5717-4562-b3fc-2c963f66afa6",
			"locationName": "string",
			"physicalSensorId": "3fa85f64-5717-4562-b3fc-2c963f66afa6",
			"physicalSensorName": "string",
			"physicalSensorBrand": "string",
			"physicalSensorModel": "string"
		},
		{
			"id": "3fa85f64-5717-4562-b3fc-2c963f66afa2",
			"name": "string",
			"interval": "string",
			"installLocation": "Inboard",
			"xAxis": "Vertical",
			"yAxis": "Horizontal",
			"zAxis": "Axial",
			"modelStatus": "Active",
			"battery": 0,
			"connected": true,
			"lastOnlineTime": "string",
			"getImageApi": "string",
			"imageDelete": true,
			"componentId": "3fa85f64-5717-4562-b3fc-2c963f66afa6",
			"componentName": "string",
			"componentModel": "string",
			"equipmentId": "3fa85f64-5717-4562-b3fc-2c963f66afa6",
			"equipmentName": "string",
			"equipmentModel": "string",
			"locationId": "3fa85f64-5717-4562-b3fc-2c963f66afa6",
			"locationName": "string",
			"physicalSensorId": "3fa85f64-5717-4562-b3fc-2c963f66afa6",
			"physicalSensorName": "string",
			"physicalSensorBrand": "string",
			"physicalSensorModel": "string"
		},
		{
			"id": "3fa85f64-5717-4562-b3fc-2c963f66afa1",
			"name": "string",
			"interval": "string",
			"installLocation": "Inboard",
			"xAxis": "Vertical",
			"yAxis": "Horizontal",
			"zAxis": "Axial",
			"modelStatus": "Active",
			"battery": 0,
			"connected": true,
			"lastOnlineTime": "string",
			"getImageApi": "string",
			"imageDelete": true,
			"componentId": "3fa85f64-5717-4562-b3fc-2c963f66afa6",
			"componentName": "string",
			"componentModel": "string",
			"equipmentId": "3fa85f64-5717-4562-b3fc-2c963f66afa6",
			"equipmentName": "string",
			"equipmentModel": "string",
			"locationId": "3fa85f64-5717-4562-b3fc-2c963f66afa6",
			"locationName": "string",
			"physicalSensorId": "3fa85f64-5717-4562-b3fc-2c963f66afa6",
			"physicalSensorName": "string",
			"physicalSensorBrand": "string",
			"physicalSensorModel": "string"
		}
	]
}