{
    "count": 40,
    "totalPage": 2,
    "currPage": 1,
    "next": "http://localhost/api/diagnostics/event/?page=2",
    "previous": null,
    "results": [
        {
            "id": "1fa85f64-5717-4562-b3fc-2c963f66afa6",
            "location": "LD-10F",
            "equipmentName": "Chiller",
            "equipmentModel": "HTD374",
            "componentName": "Motor",
            "componentModel": "itr44t",
            "installLocation": "under",
            "anomalyPattern": 4,
            "eventType": "ABCDE",
            "processStatus": "Pending",
            "startTime": "1674181800",
            "endTime": 1674181822,
            "lastEditTime": 1674190800,
            "lastEditorUserId": 20,
            "modelId": "3fa85f64-5717-4562-b3fc-2c963f66afa6",
            "sensorDataId": "3fa85f64-5717-4562-b3fc-2c963f66afa6"
        },
        {
            "id": "2fa85f64-57172c963f66afa6",
            "location": "LD-12F",
            "equipmentName": "Chiller",
            "equipmentModel": "HTD374",
            "componentName": "Motorsdvsv",
            "componentModel": "itr44tdddd",
            "installLocation": "under",
            "anomalyPattern": 1,
            "eventType": "normal",
            "processStatus": "Pending",
            "startTime": "1674181800",
            "endTime": 1674181822,
            "lastEditTime": 1674190800,
            "lastEditorUserId": 20,
            "modelId": "3fa85f64-5717-4562-b3fc-2c963f66afa6",
            "sensorDataId": "3fa85f64-5717-4562-b3fc-2c963f66afa6"
        },
        {
            "id": "3fa85f64-5717-4562-b3fc-2c963f66afa6",
            "location": "LD-1ddddd0F",
            "equipmentName": "Chiller",
            "equipmentModel": "HTD374",
            "componentName": "Motor",
            "componentModel": "itr44t",
            "installLocation": "under",
            "anomalyPattern": 12,
            "eventType": "normal",
            "processStatus": "Pending",
            "startTime": "1674181800",
            "endTime": 1674181822,
            "lastEditTime": 1674190800,
            "lastEditorUserId": 20,
            "modelId": "3fa85f64-5717-4562-b3fc-2c963f66afa6",
            "sensorDataId": "3fa85f64-5717-4562-b3fc-2c963f66afa6"
        },
        {
            "id": "3fa85f64-5717-4562-b3fc-2c963f66afa6",
            "location": "LD-1ddddd0F",
            "equipmentName": "Chiller",
            "equipmentModel": "HTD374",
            "componentName": "Motor",
            "componentModel": "itr44t",
            "installLocation": "under",
            "anomalyPattern": 8,
            "eventType": "normal",
            "processStatus": "Pending",
            "startTime": "1674181800",
            "endTime": 1674181822,
            "lastEditTime": 1674190800,
            "lastEditorUserId": 20,
            "modelId": "3fa85f64-5717-4562-b3fc-2c963f66afa6",
            "sensorDataId": "3fa85f64-5717-4562-b3fc-2c963f66afa6"
        },
        {
            "id": "3fa85f64-5717-4562-b3fc-2c963f66afa6",
            "location": "LD-1ddddd0F",
            "equipmentName": "Chiller",
            "equipmentModel": "HTD374",
            "componentName": "Motor",
            "componentModel": "itr44t",
            "installLocation": "under",
            "anomalyPattern": 11,
            "eventType": "normal",
            "processStatus": "Pending",
            "startTime": "1674181800",
            "endTime": 1674181822,
            "lastEditTime": 1674190800,
            "lastEditorUserId": 20,
            "modelId": "3fa85f64-5717-4562-b3fc-2c963f66afa6",
            "sensorDataId": "3fa85f64-5717-4562-b3fc-2c963f66afa6"
        }
    ]
}